stationcode,year,month,precipitation,mintemperature,maxtemperature,date
110020,2013,1,1.7999999999999998,6.354838709677418,18.345161290322583,2013-01-01
110020,2013,2,2.492857142857143,6.271428571428571,15.52857142857143,2013-02-01
110020,2013,5,0.5645161290322581,4.509677419354838,16.519354838709678,2013-05-01
110021,2013,1,2.5096774193548392,8.135483870967741,18.322580645161292,2013-01-01
110021,2013,2,4.507142857142857,8.467857142857143,16.385714285714283,2013-02-01
110021,2013,5,0.4612903225806452,6.0838709677419365,17.664516129032258,2013-05-01
110041,2013,1,1.1580645161290322,,,2013-01-01
110041,2013,2,5.492857142857142,,,2013-02-01
110041,2013,3,5.922580645161291,,,2013-03-01
110041,2013,4,1.1366666666666667,,,2013-04-01
110041,2013,5,0.0,,,2013-05-01
110041,2013,6,0.0,,,2013-06-01
110041,2013,7,0.0,,,2013-07-01
110041,2013,8,0.0,,,2013-08-01
110041,2013,9,0.0,,,2013-09-01
110041,2013,10,2.0258064516129033,,,2013-10-01
110041,2013,11,1.3233333333333333,,,2013-11-01
110041,2013,12,2.1903225806451614,,,2013-12-01
110053,2013,1,0.07096774193548387,10.658064516129034,26.651612903225807,2013-01-01
110053,2013,2,0.8714285714285713,10.157142857142858,26.07142857142858,2013-02-01
110053,2013,3,0.8258064516129031,10.916129032258064,26.361290322580647,2013-03-01
110053,2013,4,0.0,10.433333333333334,26.526666666666664,2013-04-01
110053,2013,5,0.0,10.083870967741936,27.01290322580645,2013-05-01
110053,2013,6,0.0,10.586666666666666,27.640000000000004,2013-06-01
110053,2013,7,0.0,9.374193548387098,27.651612903225804,2013-07-01
110053,2013,8,0.0,8.66451612903226,27.825806451612902,2013-08-01
110053,2013,9,0.0,8.853333333333333,27.806666666666672,2013-09-01
110053,2013,10,0.07096774193548387,9.380645161290323,27.36774193548387,2013-10-01
110053,2013,11,0.0,9.5,27.91333333333334,2013-11-01
110053,2013,12,0.00967741935483871,9.651612903225807,27.70967741935484,2013-12-01
110056,2013,1,0.9903225806451611,,,2013-01-01
110056,2013,2,6.871428571428574,,,2013-02-01
110056,2013,3,6.097096774193549,,,2013-03-01
110056,2013,4,0.19666666666666668,,,2013-04-01
110056,2013,5,0.5129032258064516,,,2013-05-01
110056,2013,6,0.0,,,2013-06-01
110056,2013,7,0.0,,,2013-07-01
110056,2013,8,0.01935483870967742,,,2013-08-01
110056,2013,9,0.0,,,2013-09-01
110056,2013,10,1.0648387096774192,,,2013-10-01
110056,2013,11,0.5466666666666667,,,2013-11-01
110056,2013,12,1.9645161290322575,,,2013-12-01
110057,2013,1,1.6838709677419357,,,2013-01-01
110057,2013,2,5.853571428571429,,,2013-02-01
110057,2013,3,4.070967741935484,,,2013-03-01
110057,2013,4,0.4166666666666667,,,2013-04-01
110057,2013,5,0.3870967741935484,,,2013-05-01
110057,2013,6,0.0,,,2013-06-01
110057,2013,7,0.0,,,2013-07-01
110057,2013,8,0.0,,,2013-08-01
110057,2013,9,0.0,,,2013-09-01
110057,2013,10,1.3741935483870968,,,2013-10-01
110057,2013,11,0.5566666666666666,,,2013-11-01
110057,2013,12,2.3451612903225807,,,2013-12-01
110063,2013,1,3.9870967741935486,,,2013-01-01
110063,2013,2,7.025,,,2013-02-01
110063,2013,3,6.729032258064516,,,2013-03-01
110063,2013,4,1.2033333333333334,,,2013-04-01
110063,2013,5,0.7580645161290323,,,2013-05-01
110063,2013,6,0.0003333333333333333,,,2013-06-01
110063,2013,7,0.0,,,2013-07-01
110063,2013,8,0.22258064516129034,,,2013-08-01
110063,2013,9,0.23666666666666666,,,2013-09-01
110063,2013,10,2.6419354838709674,,,2013-10-01
110063,2013,11,1.097,,,2013-11-01
110063,2013,12,3.8387096774193545,,,2013-12-01
111004,2013,1,0.04516129032258064,18.270967741935483,27.906451612903222,2013-01-01
111004,2013,2,0.0035714285714285718,19.08571428571429,29.457142857142856,2013-02-01
111004,2013,3,0.08387096774193549,18.88064516129032,28.741935483870964,2013-03-01
111004,2013,4,0.0,15.769999999999994,25.459999999999994,2013-04-01
111004,2013,5,0.0,14.951612903225806,22.95483870967742,2013-05-01
111004,2013,6,0.11999999999999998,14.073333333333332,19.593333333333337,2013-06-01
111004,2013,7,0.07096774193548387,13.696774193548388,18.448387096774198,2013-07-01
111004,2013,8,0.01935483870967742,13.296774193548389,19.00967741935484,2013-08-01
111004,2013,9,0.02333333333333333,13.723333333333333,19.869999999999997,2013-09-01
111004,2013,10,0.0032258064516129032,14.106451612903225,21.11935483870968,2013-10-01
111004,2013,11,0.0,14.955172413793106,22.586666666666666,2013-11-01
111004,2013,12,0.0,17.23225806451613,26.070967741935483,2013-12-01
111018,2013,1,0.0,17.641935483870967,26.62903225806452,2013-01-01
111018,2013,2,0.0,19.25357142857143,28.642857142857146,2013-02-01
111018,2013,3,0.03225806451612903,18.48483870967742,27.919354838709673,2013-03-01
111018,2013,4,0.006666666666666667,15.886666666666661,25.483333333333338,2013-04-01
111018,2013,5,1.2064516129032257,14.619354838709679,21.635483870967743,2013-05-01
111018,2013,6,0.68,13.063333333333334,17.553333333333335,2013-06-01
111018,2013,7,1.0387096774193547,11.938709677419356,14.896774193548385,2013-07-01
111018,2013,8,1.429032258064516,11.751612903225805,14.441935483870965,2013-08-01
111018,2013,9,0.7866666666666665,12.313333333333333,16.643333333333334,2013-09-01
111018,2013,10,0.3354838709677419,12.470967741935485,17.84516129032258,2013-10-01
111018,2013,11,0.4499999999999999,13.686666666666671,20.403333333333332,2013-11-01
111018,2013,12,0.11612903225806451,15.832258064516129,24.451612903225815,2013-12-01
111022,2013,1,0.0,18.28387096774194,29.38064516129032,2013-01-01
111022,2013,2,0.0071428571428571435,19.292857142857144,31.092857142857138,2013-02-01
111022,2013,3,0.1,19.206451612903226,30.72258064516129,2013-03-01
111022,2013,4,0.0,16.303448275862067,29.0,2013-04-01
111022,2013,5,0.04516129032258064,14.516129032258064,25.122580645161293,2013-05-01
111022,2013,6,0.19333333333333333,13.666666666666666,20.84666666666666,2013-06-01
111022,2013,7,0.12580645161290321,12.941935483870967,19.135483870967736,2013-07-01
111022,2013,8,0.09354838709677422,12.535483870967743,19.74838709677419,2013-08-01
111022,2013,9,0.05,13.300000000000004,22.459999999999994,2013-09-01
111022,2013,10,0.0032258064516129032,13.70967741935484,23.55129032258064,2013-10-01
111022,2013,11,0.020000000000000004,14.520000000000001,23.87333333333333,2013-11-01
111022,2013,12,0.0,16.673333333333332,27.42,2013-12-01
111023,2013,1,0.0,16.220000000000002,25.36774193548387,2013-01-01
111023,2013,2,0.19999999999999998,17.035714285714285,26.157142857142862,2013-02-01
111023,2013,3,0.0,16.65806451612903,26.02,2013-03-01
111023,2013,4,0.0,16.06,25.926666666666677,2013-04-01
111023,2013,5,0.0,14.49032258064516,24.186666666666664,2013-05-01
111023,2013,6,0.04666666666666666,11.566666666666666,21.64,2013-06-01
111023,2013,7,0.0,9.909677419354841,19.735483870967737,2013-07-01
111023,2013,8,0.0,9.025806451612903,19.464516129032262,2013-08-01
111023,2013,9,0.0,11.453333333333335,21.633333333333333,2013-09-01
111023,2013,10,0.0,13.67741935483871,22.741935483870968,2013-10-01
111023,2013,11,0.0,14.673333333333336,23.86,2013-11-01
111023,2013,12,0.0,15.96774193548387,24.490322580645163,2013-12-01
111025,2013,1,0.0,18.293548387096774,26.261290322580653,2013-01-01
111025,2013,2,0.0,19.11785714285714,27.070370370370373,2013-02-01
111025,2013,3,0.05806451612903226,18.429032258064517,26.645161290322577,2013-03-01
111025,2013,4,0.0,15.756666666666668,23.89666666666666,2013-04-01
111025,2013,5,0.0,15.170967741935488,21.641935483870963,2013-05-01
111025,2013,6,0.13448275862068967,14.241379310344827,18.803448275862067,2013-06-01
111025,2013,7,0.17741935483870966,13.577419354838709,17.241935483870968,2013-07-01
111025,2013,8,0.10322580645161289,13.4,17.7,2013-08-01
111025,2013,9,0.056666666666666664,13.860000000000003,19.139999999999997,2013-09-01
111025,2013,10,0.0,14.216129032258062,20.12258064516129,2013-10-01
111025,2013,11,0.0,14.846666666666666,21.426666666666662,2013-11-01
111025,2013,12,0.0,16.774193548387096,24.596774193548388,2013-12-01
111026,2013,1,1.132258064516129,7.493548387096774,18.61,2013-01-01
111026,2013,2,4.075,7.421428571428571,16.584,2013-02-01
111026,2013,3,3.5096774193548392,8.025806451612903,16.893333333333334,2013-03-01
111026,2013,4,1.1099999999999999,7.4433333333333325,18.489285714285717,2013-04-01
111026,2013,5,0.24838709677419354,7.048387096774194,17.733333333333334,2013-05-01
111026,2013,6,0.0,6.820000000000001,18.33333333333333,2013-06-01
111026,2013,7,0.0,6.167741935483871,17.893548387096775,2013-07-01
111026,2013,8,0.0064516129032258064,7.332258064516129,18.419354838709676,2013-08-01
111026,2013,9,0.03333333333333333,7.24,18.633333333333333,2013-09-01
111026,2013,10,0.44193548387096776,7.522580645161291,18.24838709677419,2013-10-01
111026,2013,11,0.8233333333333335,6.8,17.299999999999997,2013-11-01
111026,2013,12,1.2870967741935486,7.390322580645161,17.335483870967742,2013-12-01
111027,2013,1,0.9387096774193548,11.570370370370368,21.813793103448273,2013-01-01
111027,2013,2,3.1357142857142857,11.617857142857144,19.603571428571428,2013-02-01
111027,2013,3,2.735483870967742,11.42,20.14074074074074,2013-03-01
111027,2013,4,0.9199999999999999,10.4,21.606666666666666,2013-04-01
111027,2013,5,0.1774193548387097,10.09,20.637931034482758,2013-05-01
111027,2013,6,0.0,9.01666666666667,21.30666666666667,2013-06-01
111027,2013,7,0.0,8.696774193548386,21.25483870967741,2013-07-01
111027,2013,8,0.02258064516129032,9.26774193548387,21.70967741935484,2013-08-01
111027,2013,9,0.04666666666666666,10.18,22.473333333333336,2013-09-01
111027,2013,10,0.3129032258064516,10.91290322580645,21.92903225806452,2013-10-01
111027,2013,11,0.44,10.67333333333333,21.113333333333333,2013-11-01
111027,2013,12,1.2064516129032257,11.267741935483869,20.48064516129032,2013-12-01
111057,2013,1,0.22580645161290322,,,2013-01-01
111057,2013,2,2.7785714285714294,,,2013-02-01
111057,2013,3,2.4580645161290327,,,2013-03-01
111057,2013,4,0.16999999999999998,,,2013-04-01
111057,2013,5,0.1032258064516129,,,2013-05-01
111057,2013,6,0.0,,,2013-06-01
111057,2013,7,0.0,,,2013-07-01
111057,2013,8,0.0,,,2013-08-01
111057,2013,9,0.0,,,2013-09-01
111057,2013,10,0.08064516129032258,,,2013-10-01
111057,2013,11,0.6199999999999999,,,2013-11-01
111057,2013,12,0.7935483870967742,,,2013-12-01
111058,2013,1,0.31612903225806455,,,2013-01-01
111058,2013,2,5.260714285714286,,,2013-02-01
111058,2013,3,5.193548387096773,,,2013-03-01
111058,2013,4,0.013333333333333334,,,2013-04-01
111058,2013,5,0.0,,,2013-05-01
111058,2013,6,0.0,,,2013-06-01
111058,2013,7,0.0,,,2013-07-01
111058,2013,8,0.0,,,2013-08-01
111058,2013,9,0.0,,,2013-09-01
111058,2013,10,0.3064516129032258,,,2013-10-01
111058,2013,11,0.37333333333333335,,,2013-11-01
111058,2013,12,1.7161290322580647,,,2013-12-01
111060,2013,1,0.0,,,2013-01-01
111060,2013,2,0.08928571428571429,,,2013-02-01
111060,2013,3,0.11290322580645161,,,2013-03-01
111060,2013,4,0.0,,,2013-04-01
111060,2013,5,0.0,,,2013-05-01
111060,2013,6,0.0,,,2013-06-01
111060,2013,7,0.0,,,2013-07-01
111060,2013,8,0.0,,,2013-08-01
111060,2013,9,0.0,,,2013-09-01
111060,2013,10,0.0,,,2013-10-01
111060,2013,11,0.0,,,2013-11-01
111060,2013,12,0.035483870967741936,,,2013-12-01
111061,2013,1,2.9161290322580644,,,2013-01-01
111061,2013,2,4.5321428571428575,,,2013-02-01
111061,2013,3,4.683870967741934,,,2013-03-01
111061,2013,4,1.25,,,2013-04-01
111061,2013,5,0.9129032258064518,,,2013-05-01
111061,2013,6,0.03333333333333333,,,2013-06-01
111061,2013,7,0.0967741935483871,,,2013-07-01
111061,2013,8,0.3064516129032258,,,2013-08-01
111061,2013,9,0.2166666666666667,,,2013-09-01
111061,2013,10,0.9741935483870969,,,2013-10-01
111061,2013,11,1.2566666666666668,,,2013-11-01
111061,2013,12,3.064516129032257,,,2013-12-01
111062,2013,1,1.2903225806451613,,,2013-01-01
111062,2013,2,2.382142857142857,,,2013-02-01
111062,2013,3,2.306451612903226,,,2013-03-01
111062,2013,4,0.4233333333333333,,,2013-04-01
111062,2013,5,0.7451612903225807,,,2013-05-01
111062,2013,6,0.11333333333333334,,,2013-06-01
111062,2013,7,0.0,,,2013-07-01
111062,2013,8,0.14193548387096774,,,2013-08-01
111062,2013,9,0.0033333333333333335,,,2013-09-01
111062,2013,10,0.5129032258064515,,,2013-10-01
111062,2013,11,0.2833333333333333,,,2013-11-01
111062,2013,12,1.6483870967741936,,,2013-12-01
111067,2013,1,3.8870967741935485,,,2013-01-01
111067,2013,2,4.960714285714286,,,2013-02-01
111067,2013,3,5.541935483870968,,,2013-03-01
111067,2013,4,0.6599999999999999,,,2013-04-01
111067,2013,5,0.7387096774193548,,,2013-05-01
111067,2013,6,0.12666666666666665,,,2013-06-01
111067,2013,7,0.0935483870967742,,,2013-07-01
111067,2013,8,0.41935483870967744,,,2013-08-01
111067,2013,9,0.12666666666666665,,,2013-09-01
111067,2013,10,2.7483870967741937,,,2013-10-01
111067,2013,11,1.3199999999999998,,,2013-11-01
111067,2013,12,3.9580645161290327,,,2013-12-01
111077,2013,1,0.0,,,2013-01-01
111077,2013,2,0.23571428571428574,,,2013-02-01
111077,2013,3,2.3741935483870966,,,2013-03-01
111077,2013,4,0.0,,,2013-04-01
111077,2013,5,0.0,,,2013-05-01
111077,2013,6,0.0,,,2013-06-01
111077,2013,7,0.0,,,2013-07-01
111077,2013,8,0.0,,,2013-08-01
111077,2013,9,0.0,,,2013-09-01
111077,2013,10,0.0,,,2013-10-01
111077,2013,11,0.02,,,2013-11-01
111077,2013,12,0.0,,,2013-12-01
111081,2013,1,1.8741935483870964,,,2013-01-01
111081,2013,2,4.35,,,2013-02-01
111081,2013,3,4.380645161290322,,,2013-03-01
111081,2013,4,0.13333333333333333,,,2013-04-01
111081,2013,5,0.46774193548387094,,,2013-05-01
111081,2013,6,0.0,,,2013-06-01
111081,2013,7,0.0,,,2013-07-01
111081,2013,8,0.16129032258064516,,,2013-08-01
111081,2013,9,0.20666666666666667,,,2013-09-01
111081,2013,10,1.5516129032258066,,,2013-10-01
111081,2013,11,1.6966666666666665,,,2013-11-01
111081,2013,12,2.703225806451613,,,2013-12-01
111083,2013,1,0.532258064516129,,,2013-01-01
111083,2013,2,4.3428571428571425,,,2013-02-01
111083,2013,3,3.0645161290322585,,,2013-03-01
111083,2013,4,0.0,,,2013-04-01
111083,2013,5,0.0,,,2013-05-01
111083,2013,6,0.0,,,2013-06-01
111083,2013,7,0.0,,,2013-07-01
111083,2013,8,0.0,,,2013-08-01
111083,2013,9,0.0,,,2013-09-01
111083,2013,10,0.13548387096774195,,,2013-10-01
111083,2013,11,0.36000000000000004,,,2013-11-01
111083,2013,12,0.27419354838709675,,,2013-12-01
111084,2013,1,1.0064516129032257,,,2013-01-01
111084,2013,2,4.8,,,2013-02-01
111084,2013,3,4.241935483870969,,,2013-03-01
111084,2013,4,0.7200000000000001,,,2013-04-01
111084,2013,5,0.3064516129032258,,,2013-05-01
111084,2013,6,0.0,,,2013-06-01
111084,2013,7,0.0,,,2013-07-01
111084,2013,8,0.0,,,2013-08-01
111084,2013,9,0.0,,,2013-09-01
111084,2013,10,0.8193548387096774,,,2013-10-01
111084,2013,11,1.1899999999999997,,,2013-11-01
111084,2013,12,1.4483870967741936,,,2013-12-01
111085,2013,1,1.0967741935483872,,,2013-01-01
111085,2013,2,3.8035714285714293,,,2013-02-01
111085,2013,3,5.17741935483871,,,2013-03-01
111085,2013,4,0.2733333333333334,,,2013-04-01
111085,2013,5,0.08064516129032258,,,2013-05-01
111085,2013,6,0.0,,,2013-06-01
111085,2013,7,0.02258064516129032,,,2013-07-01
111085,2013,8,0.0,,,2013-08-01
111085,2013,9,0.0,,,2013-09-01
111085,2013,10,0.3354838709677419,,,2013-10-01
111085,2013,11,0.6799999999999999,,,2013-11-01
111085,2013,12,0.8225806451612905,,,2013-12-01
111087,2013,1,1.8741935483870968,,,2013-01-01
111087,2013,2,5.460714285714287,,,2013-02-01
111087,2013,3,3.909677419354839,,,2013-03-01
111087,2013,4,0.48666666666666664,,,2013-04-01
111087,2013,5,0.4967741935483871,,,2013-05-01
111087,2013,6,0.0,,,2013-06-01
111087,2013,7,0.0,,,2013-07-01
111087,2013,8,0.2709677419354839,,,2013-08-01
111087,2013,9,0.10333333333333332,,,2013-09-01
111087,2013,10,1.090322580645161,,,2013-10-01
111087,2013,11,1.6933333333333336,,,2013-11-01
111087,2013,12,2.4838709677419355,,,2013-12-01
111088,2013,1,0.632258064516129,,,2013-01-01
111088,2013,2,6.646428571428572,,,2013-02-01
111088,2013,3,5.416129032258063,,,2013-03-01
111088,2013,4,0.7899999999999999,,,2013-04-01
111088,2013,5,0.22580645161290322,,,2013-05-01
111088,2013,6,0.0,,,2013-06-01
111088,2013,7,0.0,,,2013-07-01
111088,2013,8,0.0,,,2013-08-01
111088,2013,9,0.0,,,2013-09-01
111088,2013,10,0.4935483870967742,,,2013-10-01
111088,2013,11,0.8299999999999998,,,2013-11-01
111088,2013,12,2.17741935483871,,,2013-12-01
111089,2013,1,1.9258064516129028,,,2013-01-01
111089,2013,2,3.8,,,2013-02-01
111089,2013,3,4.332258064516129,,,2013-03-01
111089,2013,4,0.6733333333333332,,,2013-04-01
111089,2013,5,0.5741935483870968,,,2013-05-01
111089,2013,6,0.01,,,2013-06-01
111089,2013,7,0.0,,,2013-07-01
111089,2013,8,0.22580645161290322,,,2013-08-01
111089,2013,9,0.0,,,2013-09-01
111089,2013,10,1.3096774193548388,,,2013-10-01
111089,2013,11,0.7133333333333333,,,2013-11-01
111089,2013,12,2.2419354838709675,,,2013-12-01
111091,2013,1,1.2774193548387094,,,2013-01-01
111091,2013,2,3.710714285714285,,,2013-02-01
111091,2013,3,3.867741935483871,,,2013-03-01
111091,2013,4,0.07,,,2013-04-01
111091,2013,5,0.6193548387096776,,,2013-05-01
111091,2013,6,0.03666666666666667,,,2013-06-01
111091,2013,7,0.0,,,2013-07-01
111091,2013,8,0.10967741935483871,,,2013-08-01
111091,2013,9,0.0,,,2013-09-01
111091,2013,10,0.667741935483871,,,2013-10-01
111091,2013,11,0.9200000000000002,,,2013-11-01
111091,2013,12,2.512903225806451,,,2013-12-01
111092,2013,1,0.4032258064516129,,,2013-01-01
111092,2013,2,3.864285714285714,,,2013-02-01
111092,2013,3,2.02258064516129,,,2013-03-01
111092,2013,4,0.056666666666666664,,,2013-04-01
111092,2013,5,0.13548387096774195,,,2013-05-01
111092,2013,6,0.0,,,2013-06-01
111092,2013,7,0.0,,,2013-07-01
111092,2013,8,0.0,,,2013-08-01
111092,2013,9,0.0,,,2013-09-01
111092,2013,10,0.0,,,2013-10-01
111092,2013,11,0.13666666666666666,,,2013-11-01
111092,2013,12,0.04838709677419355,,,2013-12-01
112058,2013,1,0.06451612903225806,18.60645161290322,30.138709677419357,2013-01-01
112058,2013,2,0.125,19.535714285714285,30.72142857142856,2013-02-01
112058,2013,3,0.11290322580645161,19.841935483870966,30.983870967741932,2013-03-01
112058,2013,4,0.0,16.936666666666664,29.513333333333335,2013-04-01
112058,2013,5,0.0,14.987096774193548,26.190322580645162,2013-05-01
112058,2013,6,0.0,13.236666666666668,24.56,2013-06-01
112058,2013,7,0.0,12.135483870967743,24.045161290322586,2013-07-01
112058,2013,8,0.0,12.029032258064515,24.058064516129033,2013-08-01
112058,2013,9,0.0,13.42333333333333,25.983333333333338,2013-09-01
112058,2013,11,0.0,14.846666666666666,27.343333333333327,2013-11-01
112058,2013,12,0.04193548387096774,17.10645161290323,28.13225806451613,2013-12-01
112080,2013,1,1.426774193548387,,,2013-01-01
112080,2013,2,2.9864285714285717,,,2013-02-01
112080,2013,3,3.2680645161290323,,,2013-03-01
112080,2013,4,0.11666666666666667,,,2013-04-01
112080,2013,5,0.0016129032258064516,,,2013-05-01
112080,2013,6,0.0,,,2013-06-01
112080,2013,7,0.0,,,2013-07-01
112080,2013,8,0.016451612903225808,,,2013-08-01
112080,2013,9,0.0,,,2013-09-01
112080,2013,10,0.0003225806451612903,,,2013-10-01
112080,2013,11,0.16066666666666665,,,2013-11-01
112080,2013,12,0.7683870967741936,,,2013-12-01
112081,2013,1,0.37419354838709684,,,2013-01-01
112081,2013,2,3.4464285714285707,,,2013-02-01
112081,2013,3,2.1354838709677417,,,2013-03-01
112081,2013,4,0.0,,,2013-04-01
112081,2013,5,0.04838709677419355,,,2013-05-01
112081,2013,6,0.0,,,2013-06-01
112081,2013,7,0.0003225806451612903,,,2013-07-01
112081,2013,8,0.0,,,2013-08-01
112081,2013,9,0.0,,,2013-09-01
112081,2013,10,0.016451612903225808,,,2013-10-01
112081,2013,11,0.37,,,2013-11-01
112081,2013,12,0.40645161290322585,,,2013-12-01
112082,2013,1,0.27096774193548384,,,2013-01-01
112082,2013,2,2.6357142857142852,,,2013-02-01
112082,2013,3,2.851612903225806,,,2013-03-01
112082,2013,4,0.02333333333333333,,,2013-04-01
112082,2013,5,0.05161290322580645,,,2013-05-01
112082,2013,6,0.0,,,2013-06-01
112082,2013,7,0.0,,,2013-07-01
112082,2013,8,0.0,,,2013-08-01
112082,2013,9,0.016666666666666666,,,2013-09-01
112082,2013,10,0.04838709677419355,,,2013-10-01
112082,2013,11,0.2,,,2013-11-01
112082,2013,12,0.567741935483871,,,2013-12-01
112096,2013,1,4.683870967741934,,,2013-01-01
112096,2013,2,4.085714285714285,,,2013-02-01
112096,2013,3,2.2225806451612904,,,2013-03-01
112096,2013,4,1.13,,,2013-04-01
112096,2013,5,0.26999999999999996,,,2013-05-01
112096,2013,6,0.0,,,2013-06-01
112096,2013,7,0.6645161290322581,,,2013-07-01
112096,2013,8,1.764516129032258,,,2013-08-01
112096,2013,9,0.8566666666666667,,,2013-09-01
112096,2013,10,2.496774193548387,,,2013-10-01
112096,2013,11,1.61,,,2013-11-01
112096,2013,12,2.6193548387096772,,,2013-12-01
112124,2013,1,0.01935483870967742,14.293548387096772,27.232258064516127,2013-01-01
112124,2013,2,1.3925925925925926,15.492592592592596,26.322222222222223,2013-02-01
112124,2013,3,0.5612903225806453,15.880645161290323,26.235483870967748,2013-03-01
112124,2013,4,0.0,15.636666666666667,27.556666666666665,2013-04-01
112124,2013,5,0.0,14.703225806451613,27.96451612903226,2013-05-01
112124,2013,6,0.0,12.623333333333335,26.88333333333333,2013-06-01
112124,2013,7,0.0,11.151612903225804,26.706451612903223,2013-07-01
112124,2013,8,0.0,11.206451612903226,27.04838709677419,2013-08-01
112124,2013,9,0.0,11.883333333333333,28.033333333333335,2013-09-01
112124,2013,10,0.0,13.799999999999999,28.0,2013-10-01
112124,2013,11,0.01,13.41,27.686666666666667,2013-11-01
112124,2013,12,0.0967741935483871,11.874193548387098,26.919354838709676,2013-12-01
112126,2013,1,1.3548387096774193,,,2013-01-01
112126,2013,2,5.789285714285714,,,2013-02-01
112126,2013,3,7.329032258064518,,,2013-03-01
112126,2013,4,0.8900000000000001,,,2013-04-01
112126,2013,5,0.16451612903225804,,,2013-05-01
112126,2013,6,0.0,,,2013-06-01
112126,2013,7,0.0,,,2013-07-01
112126,2013,8,0.02258064516129032,,,2013-08-01
112126,2013,9,0.0,,,2013-09-01
112126,2013,10,0.4225806451612903,,,2013-10-01
112126,2013,11,0.32000000000000006,,,2013-11-01
112126,2013,12,1.3387096774193548,,,2013-12-01
112127,2013,1,1.2161290322580647,,,2013-01-01
112127,2013,2,6.389285714285715,,,2013-02-01
112127,2013,3,4.387096774193548,,,2013-03-01
112127,2013,4,0.38666666666666666,,,2013-04-01
112127,2013,5,0.0,,,2013-05-01
112127,2013,6,0.0,,,2013-06-01
112127,2013,7,0.0,,,2013-07-01
112127,2013,8,0.0,,,2013-08-01
112127,2013,9,0.0,,,2013-09-01
112127,2013,10,0.3096774193548387,,,2013-10-01
112127,2013,11,0.6833333333333333,,,2013-11-01
112127,2013,12,1.7000000000000002,,,2013-12-01
112128,2013,1,2.987096774193549,,,2013-01-01
112128,2013,2,8.6,,,2013-02-01
112128,2013,3,6.729032258064516,,,2013-03-01
112128,2013,4,0.0,,,2013-04-01
112128,2013,5,0.0,,,2013-05-01
112128,2013,6,0.0,,,2013-06-01
112128,2013,7,0.0,,,2013-07-01
112128,2013,8,0.0,,,2013-08-01
112128,2013,9,0.0,,,2013-09-01
112128,2013,10,0.0,,,2013-10-01
112128,2013,11,0.8866666666666667,,,2013-11-01
112128,2013,12,1.8451612903225807,,,2013-12-01
112130,2013,1,5.754838709677419,,,2013-01-01
112130,2013,2,11.328571428571427,,,2013-02-01
112130,2013,3,6.9870967741935495,,,2013-03-01
112130,2013,4,0.0,,,2013-04-01
112130,2013,5,0.0,,,2013-05-01
112130,2013,6,0.0,,,2013-06-01
112130,2013,7,0.0,,,2013-07-01
112130,2013,8,0.0,,,2013-08-01
112130,2013,9,0.0,,,2013-09-01
112130,2013,10,2.4000000000000004,,,2013-10-01
112130,2013,11,2.2766666666666664,,,2013-11-01
112130,2013,12,1.796774193548387,,,2013-12-01
112133,2013,1,3.229032258064516,3.2225806451612904,15.612903225806448,2013-01-01
112133,2013,2,4.289285714285714,3.203571428571428,14.335714285714284,2013-02-01
112133,2013,3,4.183870967741935,3.6096774193548384,14.954838709677414,2013-03-01
112133,2013,4,0.39333333333333337,2.743333333333333,16.833333333333332,2013-04-01
112133,2013,5,0.7903225806451613,2.7483870967741937,16.254838709677422,2013-05-01
112133,2013,6,0.0,1.7566666666666668,16.866666666666667,2013-06-01
112133,2013,7,0.0,1.8193548387096778,17.232258064516135,2013-07-01
112133,2013,8,0.14516129032258066,2.051612903225807,17.483870967741936,2013-08-01
112133,2013,9,0.0,3.543333333333334,18.099999999999998,2013-09-01
112133,2013,10,0.0,4.658064516129031,17.780645161290327,2013-10-01
112133,2013,11,0.7966666666666667,4.476666666666665,17.26666666666667,2013-11-01
112133,2013,12,2.435483870967742,4.69032258064516,15.519354838709678,2013-12-01
112135,2013,1,3.8322580645161297,6.129032258064519,18.470967741935485,2013-01-01
112135,2013,2,5.842857142857144,5.5925925925925934,17.603703703703705,2013-02-01
112135,2013,3,4.1645161290322585,6.35483870967742,16.929032258064513,2013-03-01
112135,2013,4,2.9799999999999995,5.94,17.84,2013-04-01
112135,2013,5,1.270967741935484,4.051612903225807,17.838709677419356,2013-05-01
112135,2013,6,0.49666666666666665,2.8600000000000003,18.446666666666665,2013-06-01
112135,2013,7,0.2064516129032258,2.425806451612903,18.516129032258064,2013-07-01
112135,2013,8,1.0838709677419356,3.8967741935483873,18.683870967741935,2013-08-01
112135,2013,9,0.2533333333333333,3.593333333333334,19.473333333333333,2013-09-01
112135,2013,10,1.1451612903225807,4.400000000000001,19.006451612903227,2013-10-01
112135,2013,11,2.023333333333334,5.299999999999999,18.613333333333333,2013-11-01
112135,2013,12,2.5612903225806454,5.509677419354838,18.096774193548388,2013-12-01
